Comentários sobre deep learning
…
Dados

library(tidyverse)
logistic <- function(x) 1 / (1 + exp(-x))

n <- 100000
set.seed(19910401)
dados <- tibble(
  x = runif(n, -2, 2),
  y = rbinom(n, 1, prob = logistic(-1 + 2 * x))
)
dados

## # A tibble: 100,000 x 2
##          x     y
##      <dbl> <int>
##  1 -1.19       0
##  2  0.0146     0
##  3  1.63       1
##  4 -1.51       0
##  5 -0.500      0
##  6 -0.957      1
##  7 -0.108      1
##  8  0.0595     0
##  9  1.86       1
## 10 -1.69       0
## # ... with 99,990 more rows
…
